\babel@toc {english}{}
\contentsline {section}{\numberline {0.1}Introduction}{1}{section.0.1}%
\contentsline {chapter}{\numberline {A}Beispiel Anhang}{11}{appendix.A}%
\contentsline {chapter}{\nonumberline List of Figures}{13}{chapter*.2}%
\contentsline {chapter}{\nonumberline List of Tables}{15}{chapter*.3}%
\contentsline {chapter}{\nonumberline Listings}{17}{chapter*.4}%
