\relax 
\providecommand\hyper@newdestlabel[2]{}
\providecommand*\new@tpo@label[2]{}
\@nameuse{bbl@beforestart}
\providecommand\HyperFirstAtBeginDocument{\AtBeginDocument}
\HyperFirstAtBeginDocument{\ifx\hyper@anchor\@undefined
\global\let\oldcontentsline\contentsline
\gdef\contentsline#1#2#3#4{\oldcontentsline{#1}{#2}{#3}}
\global\let\oldnewlabel\newlabel
\gdef\newlabel#1#2{\newlabelxx{#1}#2}
\gdef\newlabelxx#1#2#3#4#5#6{\oldnewlabel{#1}{{#2}{#3}}}
\AtEndDocument{\ifx\hyper@anchor\@undefined
\let\contentsline\oldcontentsline
\let\newlabel\oldnewlabel
\fi}
\fi}
\global\let\hyper@last\relax 
\gdef\HyperFirstAtBeginDocument#1{#1}
\providecommand\HyField@AuxAddToFields[1]{}
\providecommand\HyField@AuxAddToCoFields[2]{}
\providecommand\BKM@entry[2]{}
\babel@aux{english}{}
\@input{text/abstract.aux}
\BKM@entry{id=1,open,dest={73656374696F6E2E302E31},srcline={132}}{302E3120496E74726F64756374696F6E}
\@writefile{toc}{\contentsline {section}{\numberline {0.1}Introduction}{1}{section.0.1}\protected@file@percent }
\BKM@entry{id=2,open,dest={617070656E6469782E41},srcline={14}}{4120426569737069656C20416E68616E67}
\@writefile{toc}{\contentsline {chapter}{\numberline {A}Beispiel Anhang}{11}{appendix.A}\protected@file@percent }
\@writefile{lof}{\addvspace {10\p@ }}
\@writefile{lot}{\addvspace {10\p@ }}
\@writefile{lol}{\addvspace {10\p@ }}
\BKM@entry{id=3,open,dest={636861707465722A2E32},srcline={670}}{4C697374206F662046696775726573}
\@writefile{toc}{\contentsline {chapter}{\nonumberline List of Figures}{13}{chapter*.2}\protected@file@percent }
\BKM@entry{id=4,open,dest={636861707465722A2E33},srcline={671}}{4C697374206F66205461626C6573}
\@writefile{toc}{\contentsline {chapter}{\nonumberline List of Tables}{15}{chapter*.3}\protected@file@percent }
\BKM@entry{id=5,open,dest={636861707465722A2E34},srcline={672}}{4C697374696E6773}
\bibstyle{alpha}
\bibdata{bibliography}
\@writefile{toc}{\contentsline {chapter}{\nonumberline Listings}{17}{chapter*.4}\protected@file@percent }
\@writefile{lof}{\addvspace {10\p@ }}
\@writefile{lot}{\addvspace {10\p@ }}
\@writefile{lol}{\addvspace {10\p@ }}
\global\csname @altsecnumformattrue\endcsname
\global\@namedef{scr@dte@chapter@lastmaxnumwidth}{16.1933pt}
\global\@namedef{scr@dte@section@lastmaxnumwidth}{21.4132pt}
