\relax 
\bibstyle{amsplain}
\bibdata{bib/references}
\bibcite{MartinEbner2008}{1}
\@writefile{toc}{\contentsline {chapter}{Bibliography}{21}\protected@file@percent }
\@setckpt{biblio}{
\setcounter{page}{22}
\setcounter{equation}{0}
\setcounter{enumi}{0}
\setcounter{enumii}{0}
\setcounter{enumiii}{0}
\setcounter{enumiv}{1}
\setcounter{footnote}{0}
\setcounter{mpfootnote}{0}
\setcounter{part}{0}
\setcounter{chapter}{0}
\setcounter{section}{10}
\setcounter{subsection}{0}
\setcounter{subsubsection}{0}
\setcounter{paragraph}{0}
\setcounter{subparagraph}{0}
\setcounter{figure}{0}
\setcounter{table}{0}
\setcounter{cp@cntr}{0}
}
