\contentsline {section}{\numberline {0.1}Introduction}{1}%
\contentsline {section}{\numberline {0.2}The Langauge}{3}%
\contentsline {section}{\numberline {0.3}The Compartments}{5}%
\contentsline {section}{\numberline {0.4}The Interpreter}{10}%
\contentsline {section}{\numberline {0.5}The Interactive shell}{11}%
\contentsline {section}{\numberline {0.6}The Model Parser}{12}%
\contentsline {section}{\numberline {0.7}The Default Files}{14}%
\contentsline {section}{\numberline {0.8}Help}{16}%
\contentsline {section}{\numberline {0.9}The User Interface}{17}%
\contentsline {section}{\numberline {0.10}Related Work}{18}%
\contentsline {chapter}{Bibliography}{21}%
