\relax 
\pgfsyspdfmark {pgfid1}{4736286}{50644704}
\@input{erklaerung.aux}
\@input{abstract.aux}
\@input{acknowledgments.aux}
\@input{toc.aux}
\@input{introduction.aux}
\@input{language.aux}
\newlabel{Intro}{{0.1}{3}}
\@input{compartments.aux}
\@input{interpreter.aux}
\@input{interactive_shell.aux}
\@input{parser.aux}
\@input{default.aux}
\@input{help.aux}
\@input{ui.aux}
\@input{relatedwork.aux}
\@input{appendix.aux}
\@input{biblio.aux}
