This is BibTeX, Version 0.99d (TeX Live 2019/Debian)
Capacity: max_strings=200000, hash_size=200000, hash_prime=170003
The top-level auxiliary file: main.aux
A level-1 auxiliary file: erklaerung.aux
A level-1 auxiliary file: abstract.aux
A level-1 auxiliary file: acknowledgments.aux
A level-1 auxiliary file: toc.aux
A level-1 auxiliary file: introduction.aux
A level-1 auxiliary file: relatedwork.aux
A level-1 auxiliary file: appendix.aux
A level-1 auxiliary file: biblio.aux
The style file: amsplain.bst
Database file #1: bib/references.bib
You've used 1 entry,
            2213 wiz_defined-function locations,
            516 strings with 4269 characters,
and the built_in function-call counts, 504 in all, are:
= -- 43
> -- 21
< -- 0
+ -- 7
- -- 6
* -- 33
:= -- 77
add.period$ -- 1
call.type$ -- 1
change.case$ -- 5
chr.to.int$ -- 0
cite$ -- 1
duplicate$ -- 23
empty$ -- 42
format.name$ -- 6
if$ -- 111
int.to.chr$ -- 0
int.to.str$ -- 1
missing$ -- 2
newline$ -- 13
num.names$ -- 4
pop$ -- 8
preamble$ -- 1
purify$ -- 4
quote$ -- 0
skip$ -- 23
stack$ -- 0
substring$ -- 33
swap$ -- 9
text.length$ -- 0
text.prefix$ -- 0
top$ -- 0
type$ -- 4
warning$ -- 0
while$ -- 5
width$ -- 2
write$ -- 18
